com\sns\user\controller\SMSController.class
com\sns\user\repository\GroupRepository.class
com\sns\user\model\SMSModel.class
com\sns\user\controller\IndexController.class
com\sns\user\service\SMSService.class
com\sns\user\SendSMS.class
com\sns\user\model\PrintMessage.class
com\sns\user\model\AjaxResponseBody.class
